Plots
…
Time Foraging

Time_Foraging_clean<- Time_Foraging %>% # clean the data 
  select( # Select and rename the columns
    Species,
    Size = `Size (cm)`,
    Age_Class = `Age Class`,
    Mean_Bout_Duration = `Mean Feeding Bout Duration (seconds)`,
    Bout_Frequency = `Feeding Bout Frequency (Mean per min)`,
    Prop_Time_Feeding = `Proportion of Time Feeding`)
Time_Foraging_clean

# A tibble: 30 × 6
   Species    Size Age_Class Mean_Bout_Duration Bout_Frequency Prop_Time_Feeding
   <chr>     <dbl> <chr>                  <dbl>          <dbl>             <dbl>
 1 Z cornut…   8   Juvenile                1.3           0.42               0.91
 2 Z cornut…   8.5 Juvenile                3.2           0.714              3.81
 3 Z cornut…  10   Juvenile                7.5           1.14              14.2 
 4 Z cornut…   7   Juvenile                1.3           0.42               0.91
 5 Z cornut…   9.5 Juvenile                6.8           1.42              16.1 
 6 Z cornut…   9   Juvenile                6.25          1.14              11.9 
 7 Z cornut…   6.5 Juvenile               11             0.714             13.1 
 8 Z cornut…   7   Juvenile               12.7           0.86              18.1 
 9 Z cornut…   6.5 Juvenile               25.2           0.714             30.0 
10 Z cornut…   5.5 Juvenile               22.4           1                 37.3 
# ℹ 20 more rows
…
